<?xml version="1.0" encoding="UTF-8"?>
<!DOCTYPE svg PUBLIC "-//W3C//DTD SVG 1.1//EN" "http://www.w3.org/Graphics/SVG/1.1/DTD/svg11.dtd">
<svg xmlns="http://www.w3.org/2000/svg" xml:space="preserve" width="32px" height="32px" version="1.1" style="shape-rendering:geometricPrecision; text-rendering:geometricPrecision; image-rendering:optimizeQuality; fill-rule:evenodd; clip-rule:evenodd" viewBox="0 0 76 76" xmlns:xlink="http://www.w3.org/1999/xlink">
 <defs>
  <style type="text/css">
   <![CDATA[
    .fil0 {fill:red}
   ]]>
  </style>
 </defs>
 <g id="Layer_x0020_1">
  <metadata id="CorelCorpID_0Corel-Layer"/>
  <path class="fil0" d="M62 9c8,7 14,17 14,29 0,21 -17,38 -38,38 -21,0 -38,-17 -38,-38 0,-12 5,-22 14,-29 1,-1 2,-1 1,0 -4,5 -7,11 -7,19 0,16 13,30 30,30 1,-3 2,-5 2,-8 0,-13 -15,-12 -15,-29 0,-13 9,-19 12,-21 1,0 1,0 1,1 -1,2 -2,5 -2,7 0,13 14,13 14,30 0,6 -2,15 -11,20 16,-1 29,-14 29,-30 0,-8 -3,-14 -7,-19 -1,-1 0,-1 1,0z"/>
 </g>
</svg>
